digraph a {
graph[rankdir=LR, center=true, margin=0.2, ranksep=0.3]
node [shape = doublecircle]; f0;
node [shape = doublecircle]; f1;
node [shape = doublecircle]; f2;
node [shape = circle];
s -> s [label = "0,1,2"];
s -> s0 [label = "0"];
s0 -> s0 [label = "0,1,2"];
s0 -> f0 [label = "0"];

s -> s1 [label = "1"];
s1 -> s1 [label = "1,2"];
s1 -> f1 [label = "1"];

s -> s2 [label = "2"];
s2 -> s2 [label = "2"];
s2 -> f2 [label = "2"];

edge [color = red];
s -> s [label = "0"];
s -> s1 [label = "1"];
s1 -> s1 [label = "2"];
s1 -> f1 [label = "1"];
edge [color = blue];
}
