%!PS-Adobe-3.0
%%Creator: graphviz version 2.46.0 (0)
%%Title: ass61a
%%Pages: (atend)
%%BoundingBox: (atend)
%%EndComments
save
%%BeginProlog
/DotDict 200 dict def
DotDict begin

/setupLatin1 {
mark
/EncodingVector 256 array def
 EncodingVector 0

ISOLatin1Encoding 0 255 getinterval putinterval
EncodingVector 45 /hyphen put

% Set up ISO Latin 1 character encoding
/starnetISO {
        dup dup findfont dup length dict begin
        { 1 index /FID ne { def }{ pop pop } ifelse
        } forall
        /Encoding EncodingVector def
        currentdict end definefont
} def
/Times-Roman starnetISO def
/Times-Italic starnetISO def
/Times-Bold starnetISO def
/Times-BoldItalic starnetISO def
/Helvetica starnetISO def
/Helvetica-Oblique starnetISO def
/Helvetica-Bold starnetISO def
/Helvetica-BoldOblique starnetISO def
/Courier starnetISO def
/Courier-Oblique starnetISO def
/Courier-Bold starnetISO def
/Courier-BoldOblique starnetISO def
cleartomark
} bind def

%%BeginResource: procset graphviz 0 0
/coord-font-family /Times-Roman def
/default-font-family /Times-Roman def
/coordfont coord-font-family findfont 8 scalefont def

/InvScaleFactor 1.0 def
/set_scale {
       dup 1 exch div /InvScaleFactor exch def
       scale
} bind def

% styles
/solid { [] 0 setdash } bind def
/dashed { [9 InvScaleFactor mul dup ] 0 setdash } bind def
/dotted { [1 InvScaleFactor mul 6 InvScaleFactor mul] 0 setdash } bind def
/invis {/fill {newpath} def /stroke {newpath} def /show {pop newpath} def} bind def
/bold { 2 setlinewidth } bind def
/filled { } bind def
/unfilled { } bind def
/rounded { } bind def
/diagonals { } bind def
/tapered { } bind def

% hooks for setting color 
/nodecolor { sethsbcolor } bind def
/edgecolor { sethsbcolor } bind def
/graphcolor { sethsbcolor } bind def
/nopcolor {pop pop pop} bind def

/beginpage {	% i j npages
	/npages exch def
	/j exch def
	/i exch def
	/str 10 string def
	npages 1 gt {
		gsave
			coordfont setfont
			0 0 moveto
			(\() show i str cvs show (,) show j str cvs show (\)) show
		grestore
	} if
} bind def

/set_font {
	findfont exch
	scalefont setfont
} def

% draw text fitted to its expected width
/alignedtext {			% width text
	/text exch def
	/width exch def
	gsave
		width 0 gt {
			[] 0 setdash
			text stringwidth pop width exch sub text length div 0 text ashow
		} if
	grestore
} def

/boxprim {				% xcorner ycorner xsize ysize
		4 2 roll
		moveto
		2 copy
		exch 0 rlineto
		0 exch rlineto
		pop neg 0 rlineto
		closepath
} bind def

/ellipse_path {
	/ry exch def
	/rx exch def
	/y exch def
	/x exch def
	matrix currentmatrix
	newpath
	x y translate
	rx ry scale
	0 0 1 0 360 arc
	setmatrix
} bind def

/endpage { showpage } bind def
/showpage { } def

/layercolorseq
	[	% layer color sequence - darkest to lightest
		[0 0 0]
		[.2 .8 .8]
		[.4 .8 .8]
		[.6 .8 .8]
		[.8 .8 .8]
	]
def

/layerlen layercolorseq length def

/setlayer {/maxlayer exch def /curlayer exch def
	layercolorseq curlayer 1 sub layerlen mod get
	aload pop sethsbcolor
	/nodecolor {nopcolor} def
	/edgecolor {nopcolor} def
	/graphcolor {nopcolor} def
} bind def

/onlayer { curlayer ne {invis} if } def

/onlayers {
	/myupper exch def
	/mylower exch def
	curlayer mylower lt
	curlayer myupper gt
	or
	{invis} if
} def

/curlayer 0 def

%%EndResource
%%EndProlog
%%BeginSetup
14 default-font-family set_font
% /arrowlength 10 def
% /arrowwidth 5 def

% make sure pdfmark is harmless for PS-interpreters other than Distiller
/pdfmark where {pop} {userdict /pdfmark /cleartomark load put} ifelse
% make '<<' and '>>' safe on PS Level 1 devices
/languagelevel where {pop languagelevel}{1} ifelse
2 lt {
    userdict (<<) cvn ([) cvn load put
    userdict (>>) cvn ([) cvn load put
} if

%%EndSetup
setupLatin1
%%Page: 1 1
%%PageBoundingBox: 165 306 447 486
%%PageOrientation: Portrait
0 0 1 beginpage
gsave
165 306 282 180 boxprim clip newpath
1 1 set_scale 0 rotate 169.458 309.502 translate
% q3
gsave
1 setlinewidth
0 0 0 nodecolor
23.4983 23.4983 19.4968 19.4968 ellipse_path stroke
1 setlinewidth
0 0 0 nodecolor
23.4983 23.4983 23.4965 23.4965 ellipse_path stroke
0 0 0 nodecolor
14 /Times-Roman set_font
16.4983 19.7983 moveto 14 (q3) alignedtext
grestore
% q0
gsave
1 setlinewidth
0 0 0 nodecolor
23.4983 84.4983 19.4965 19.4965 ellipse_path stroke
0 0 0 nodecolor
14 /Times-Roman set_font
16.4983 80.7983 moveto 14 (q0) alignedtext
grestore
% q0->q0
gsave
1 setlinewidth
0 0 0 edgecolor
newpath 17.0268 103.0201 moveto
15.927 112.95 18.0842 121.9965 23.4983 121.9965 curveto
26.8821 121.9965 28.9936 118.4627 29.833 113.3881 curveto
stroke
0 0 0 edgecolor
newpath 33.3374 113.0654 moveto
29.9698 103.0201 lineto
26.338 112.973 lineto
closepath fill
1 setlinewidth
solid
0 0 0 edgecolor
newpath 33.3374 113.0654 moveto
29.9698 103.0201 lineto
26.338 112.973 lineto
closepath stroke
0 0 0 edgecolor
14 /Times-Roman set_font
3.9983 140.7965 moveto 39 (b,λ/λ\\n) alignedtext
0 0 0 edgecolor
14 /Times-Roman set_font
7.9983 125.7965 moveto 31 (a,λ/A) alignedtext
grestore
% q1
gsave
1 setlinewidth
0 0 0 nodecolor
95.4948 84.4983 19.4965 19.4965 ellipse_path stroke
0 0 0 nodecolor
14 /Times-Roman set_font
88.4948 80.7983 moveto 14 (q1) alignedtext
grestore
% q0->q1
gsave
1 setlinewidth
0 0 0 edgecolor
newpath 43.2561 84.4983 moveto
50.0821 84.4983 57.9673 84.4983 65.4743 84.4983 curveto
stroke
0 0 0 edgecolor
newpath 65.6853 87.9984 moveto
75.6852 84.4983 lineto
65.6852 80.9984 lineto
closepath fill
1 setlinewidth
solid
0 0 0 edgecolor
newpath 65.6853 87.9984 moveto
75.6852 84.4983 lineto
65.6852 80.9984 lineto
closepath stroke
0 0 0 edgecolor
14 /Times-Roman set_font
57.9965 88.2983 moveto 7 (a) alignedtext
grestore
% q1->q1
gsave
1 setlinewidth
0 0 0 edgecolor
newpath 89.7057 103.4065 moveto
88.8151 113.1835 90.7448 121.9965 95.4948 121.9965 curveto
98.4636 121.9965 100.3306 118.5539 101.096 113.585 curveto
stroke
0 0 0 edgecolor
newpath 104.5986 113.4694 moveto
101.2839 103.4065 lineto
97.5998 113.3401 lineto
closepath fill
1 setlinewidth
solid
0 0 0 edgecolor
newpath 104.5986 113.4694 moveto
101.2839 103.4065 lineto
97.5998 113.3401 lineto
closepath stroke
0 0 0 edgecolor
14 /Times-Roman set_font
91.9948 125.7965 moveto 7 (b) alignedtext
grestore
% q2
gsave
1 setlinewidth
0 0 0 nodecolor
163.4913 120.4983 19.4965 19.4965 ellipse_path stroke
0 0 0 nodecolor
14 /Times-Roman set_font
156.4913 116.7983 moveto 14 (q2) alignedtext
grestore
% q1->q2
gsave
1 setlinewidth
0 0 0 edgecolor
newpath 113.1485 93.5826 moveto
120.3942 97.535 129.0465 102.2547 137.0676 106.63 curveto
stroke
0 0 0 edgecolor
newpath 135.6167 109.8254 moveto
146.0716 111.5416 lineto
138.9688 103.6802 lineto
closepath fill
1 setlinewidth
solid
0 0 0 edgecolor
newpath 135.6167 109.8254 moveto
146.0716 111.5416 lineto
138.9688 103.6802 lineto
closepath stroke
0 0 0 edgecolor
14 /Times-Roman set_font
125.9931 107.2983 moveto 7 (a) alignedtext
grestore
% q2->q2
gsave
1 setlinewidth
0 0 0 edgecolor
newpath 157.7023 139.4065 moveto
156.8117 149.1835 158.7413 157.9965 163.4913 157.9965 curveto
166.4601 157.9965 168.3272 154.5539 169.0925 149.585 curveto
stroke
0 0 0 edgecolor
newpath 172.5952 149.4694 moveto
169.2804 139.4065 lineto
165.5964 149.3401 lineto
closepath fill
1 setlinewidth
solid
0 0 0 edgecolor
newpath 172.5952 149.4694 moveto
169.2804 139.4065 lineto
165.5964 149.3401 lineto
closepath stroke
0 0 0 edgecolor
14 /Times-Roman set_font
159.9913 161.7965 moveto 7 (b) alignedtext
grestore
% q3,q3
gsave
1 setlinewidth
0 0 0 nodecolor
242.5369 84.4983 30.5947 30.5947 ellipse_path stroke
0 0 0 nodecolor
14 /Times-Roman set_font
227.0369 80.7983 moveto 31 (q3,q3) alignedtext
grestore
% q2->q3,q3
gsave
1 setlinewidth
0 0 0 edgecolor
newpath 181.5903 112.5087 moveto
188.6121 109.2277 197.0264 105.2961 205.2997 101.4303 curveto
stroke
0 0 0 edgecolor
newpath 206.9206 104.5362 moveto
214.4988 97.132 lineto
203.9573 98.1944 lineto
closepath fill
1 setlinewidth
solid
0 0 0 edgecolor
newpath 206.9206 104.5362 moveto
214.4988 97.132 lineto
203.9573 98.1944 lineto
closepath stroke
0 0 0 edgecolor
14 /Times-Roman set_font
193.9896 109.2983 moveto 7 (a) alignedtext
grestore
% q3,q3->q1
gsave
1 setlinewidth
0 0 0 edgecolor
newpath 212.1141 80.287 moveto
202.8183 79.143 192.493 78.0644 182.9896 77.4983 curveto
165.6885 76.4677 161.2785 76.2314 143.9931 77.4983 curveto
137.8155 77.951 131.222 78.7308 124.9746 79.6095 curveto
stroke
0 0 0 edgecolor
newpath 124.2804 76.1748 moveto
114.9219 81.1416 lineto
125.3352 83.0949 lineto
closepath fill
1 setlinewidth
solid
0 0 0 edgecolor
newpath 124.2804 76.1748 moveto
114.9219 81.1416 lineto
125.3352 83.0949 lineto
closepath stroke
0 0 0 edgecolor
14 /Times-Roman set_font
159.9913 81.2983 moveto 7 (a) alignedtext
grestore
% q3,q3->q3,q3
gsave
1 setlinewidth
0 0 0 edgecolor
newpath 234.2889 114.3648 moveto
234.2016 124.6995 236.951 133.0456 242.5369 133.0456 curveto
246.1154 133.0456 248.5297 129.6203 249.7799 124.4413 curveto
stroke
0 0 0 edgecolor
newpath 253.2751 124.6628 moveto
250.7849 114.3648 lineto
246.3097 123.968 lineto
closepath fill
1 setlinewidth
solid
0 0 0 edgecolor
newpath 253.2751 124.6628 moveto
250.7849 114.3648 lineto
246.3097 123.968 lineto
closepath stroke
0 0 0 edgecolor
14 /Times-Roman set_font
239.0369 136.8456 moveto 7 (b) alignedtext
grestore
endpage
showpage
grestore
%%PageTrailer
%%EndPage: 1
%%Trailer
%%Pages: 1
%%BoundingBox: 165 306 447 486
end
restore
%%EOF
