digraph ass62a {
graph[rankdir=LR, center=true, margin=0.2, ranksep=0.3]
node [shape = doublecircle]; q1
node [shape = circle];
q0 -> q1 [label = <&lambda;,&lambda;/&lambda;>];
q1 -> q1 [label = <a,S/&lambda; <br/>(,S/SQ <br/>bigotimes,Q/SH <br/> ),H/&lambda;>]; 
}
